diff --cc AUTHORS.txt
index 5719bcb,13f995e..0000000
--- a/AUTHORS.txt
+++ b/AUTHORS.txt
@@@ -1,3 -1,3 +1,7 @@@
  DERYABIN Ivan   deryabin.ivan.a@gmail.com
  BESSON Corentin besson.corentin62@gmail.com
 -TP1 Devops
++<<<<<<< HEAD
 +M1 INFO
++=======
++TP1 Devops
++>>>>>>> feature1
